Lab_tb.vcd
$date
	Fri Oct 23 16:55:45 2020
$end
$version
	Icarus Verilog
$end
$timescale
	1ps
$end
$scope module LAB_8 $end
$var wire 4 ! alu [3:0] $end
$var wire 8 " Memoria [7:0] $end
$var wire 12 # Contador [11:0] $end
$var reg 4 $ A [3:0] $end
$var reg 4 % B [3:0] $end
$var reg 1 & EC $end
$var reg 12 ' add [11:0] $end
$var reg 1 ( clk $end
$var reg 12 ) data [11:0] $end
$var reg 1 * load $end
$var reg 1 + reset $end
$var reg 3 , sel [2:0] $end
$scope module U1 $end
$var wire 1 ( clk $end
$var wire 12 - data [11:0] $end
$var wire 1 & enable $end
$var wire 1 * load $end
$var wire 1 + reset $end
$var reg 12 . out [11:0] $end
$upscope $end
$scope module U2 $end
$var wire 12 / address [11:0] $end
$var wire 8 0 data [7:0] $end
$upscope $end
$scope module U3 $end
$var wire 4 1 A [3:0] $end
$var wire 4 2 B [3:0] $end
$var wire 3 3 sel [2:0] $end
$var reg 5 4 X [4:0] $end
$var reg 4 5 Y [3:0] $end
$var reg 1 6 menor $end
$upscope $end
$upscope $end
$enddefinitions $end
#0
$dumpvars
x6
bx 5
bx 4
bx 3
bx 2
bx 1
bx 0
bx /
bx .
bx -
bx ,
x+
x*
bx )
0(
bx '
x&
bx %
bx $
bx #
bx "
bx !
$end
#1
1(
#2
0(
#3
b0 #
b0 .
1(
0&
0*
b10100 )
b10100 -
1+
#4
0(
0+
#5
1(
#6
0(
#7
1(
#8
0(
#9
b1 #
b1 .
1(
1&
#10
0(
#11
b10 #
b10 .
1(
#12
0(
#13
b11 #
b11 .
1(
#14
0(
#15
b100 #
b100 .
1(
#16
0(
#17
b101 #
b101 .
1(
#18
0(
#19
b110 #
b110 .
1(
#20
0(
#21
b111 #
b111 .
1(
#22
0(
#23
b1000 #
b1000 .
1(
#24
0(
#25
b1001 #
b1001 .
1(
#26
0(
#27
b1010 #
b1010 .
1(
#28
0(
#29
b10100 #
b10100 .
1(
1*
#30
0(
#31
1(
#32
0(
#33
1(
#34
0(
b110010 )
b110010 -
0*
#35
b10101 #
b10101 .
1(
#36
0(
#37
b10110 #
b10110 .
1(
#38
0(
#39
b110010 #
b110010 .
1(
1*
#40
0(
#41
1(
#42
0(
#43
1(
#44
0(
0*
#45
b110011 #
b110011 .
1(
#46
0(
#47
b110100 #
b110100 .
1(
#48
0(
#49
b110101 #
b110101 .
1(
#50
0(
#51
b110110 #
b110110 .
1(
#52
0(
#53
b110111 #
b110111 .
1(
#54
0(
0&
#55
1(
#56
0(
#57
1(
#58
0(
#59
1(
#60
0(
#61
b0 "
b0 0
1(
b0 '
b0 /
#62
0(
#63
b1 "
b1 0
1(
b110111 '
b110111 /
#64
0(
#65
b10 "
b10 0
1(
b1010000 '
b1010000 /
#66
0(
#67
b11 "
b11 0
1(
b1010101 '
b1010101 /
#68
0(
#69
b100 "
b100 0
1(
b1011111 '
b1011111 /
#70
0(
#71
b1100000 "
b1100000 0
1(
b1100000 '
b1100000 /
#72
0(
#73
b101 "
b101 0
1(
b1101 '
b1101 /
#74
0(
#75
b110 "
b110 0
1(
b100011 '
b100011 /
#76
0(
#77
b1100010 "
b1100010 0
1(
b1100010 '
b1100010 /
#78
0(
#79
b1000100 "
b1000100 0
1(
b1000100 '
b1000100 /
#80
b0 !
b0 5
0(
b0 %
b0 2
b0 $
b0 1
b0 ,
b0 3
#81
1(
b1 %
b1 2
#82
b1 !
b1 5
0(
b1 $
b1 1
#83
1(
b1111 %
b1111 2
#84
b1111 !
b1111 5
0(
b1111 $
b1111 1
#85
1(
#86
b0 !
b0 5
0(
b0 %
b0 2
b0 $
b0 1
b1 ,
b1 3
#87
b1111 !
b1111 5
1(
b1111 $
b1111 1
#88
b0 !
b0 5
0(
b0 $
b0 1
#89
b1111 !
b1111 5
1(
b1111 %
b1111 2
#90
0(
b1111 $
b1111 1
#91
1(
#92
b0 !
b0 5
b0 4
0(
b0 %
b0 2
b0 $
b0 1
b10 ,
b10 3
#93
b10 !
b10 5
b10 4
1(
b1 %
b1 2
b1 $
b1 1
#94
b1111 !
b1111 5
b1111 4
0(
b0 %
b0 2
b1111 $
b1111 1
#95
b1010 !
b1010 5
b1010 4
1(
b11 %
b11 2
b111 $
b111 1
#96
b0 !
b0 5
b10000 4
0(
b1 %
b1 2
b1111 $
b1111 1
#97
1(
#98
0(
b11 ,
b11 3
#99
1(
b1 $
b1 1
#100
0(
b1111 %
b1111 2
b1111 $
b1111 1
#101
1(
#102
0(
b0 %
b0 2
b0 $
b0 1
b100 ,
b100 3
#103
b1111 !
b1111 5
1(
b1111 $
b1111 1
#104
b0 !
b0 5
0(
b1111 %
b1111 2
#105
1(
#106
b1111 !
b1111 5
0(
b0 %
b0 2
b0 $
b0 1
b101 ,
b101 3
#107
b0 !
b0 5
1(
b1111 %
b1111 2
#108
b1111 !
b1111 5
0(
b1111 $
b1111 1
#109
1(
b0 %
b0 2
#110
0(
#111
b0 !
b0 5
b0 4
1(
b0 $
b0 1
b110 ,
b110 3
#112
b1001 !
b1001 5
b1001 4
0(
b1 %
b1 2
b1010 $
b1010 1
#113
b101 !
b101 5
b101 4
1(
b1010 %
b1010 2
b1111 $
b1111 1
#114
b1 !
b1 5
b1 4
0(
b110 %
b110 2
b111 $
b111 1
#115
b0 !
b0 5
b0 4
1(
b1 %
b1 2
b1 $
b1 1
#116
0(
#117
06
1(
b0 %
b0 2
b0 $
b0 1
b111 ,
b111 3
#118
0(
b1 %
b1 2
b1 $
b1 1
#119
1(
b1111 %
b1111 2
b1111 $
b1111 1
#120
b1111 !
b1111 5
16
0(
b1 $
b1 1
#121
1(
b1011 %
b1011 2
b1010 $
b1010 1
#122
b0 !
b0 5
06
0(
b1010 %
b1010 2
b1011 $
b1011 1
#123
1(
b1 %
b1 2
b1000 $
b1000 1
